Modeling
…
We can then see which tuning parameters are best.

tree_fits |>
  collect_metrics() |>
  filter(.metric == "mn_log_loss") |>
  arrange(mean)

# A tibble: 50 × 8
   cost_complexity tree_depth .metric     .estimator  mean     n std_err .config
             <dbl>      <int> <chr>       <chr>      <dbl> <int>   <dbl> <chr>  
 1    0.0000000001         11 mn_log_loss binary     0.349     5 0.00129 Prepro…
 2    0.000000001          11 mn_log_loss binary     0.349     5 0.00129 Prepro…
 3    0.00000001           11 mn_log_loss binary     0.349     5 0.00129 Prepro…
 4    0.0000001            11 mn_log_loss binary     0.349     5 0.00129 Prepro…
 5    0.000001             11 mn_log_loss binary     0.349     5 0.00129 Prepro…
 6    0.0000000001          8 mn_log_loss binary     0.349     5 0.00107 Prepro…
 7    0.000000001           8 mn_log_loss binary     0.349     5 0.00107 Prepro…
 8    0.00000001            8 mn_log_loss binary     0.349     5 0.00107 Prepro…
 9    0.0000001             8 mn_log_loss binary     0.349     5 0.00107 Prepro…
10    0.000001              8 mn_log_loss binary     0.349     5 0.00107 Prepro…
# ℹ 40 more rows
…
